Créer et Exploiter une Base de Données sous R
…
#> ── Conflicts ──────────────────────────────────────────── tidyverse_conflicts() ──
#> ✖ readr::col_factor() masks scales::col_factor()
#> ✖ purrr::discard()    masks scales::discard()
#> ✖ dplyr::filter()     masks stats::filter()
#> ✖ dplyr::lag()        masks stats::lag()

Construire un tibble

tibble(
  x = 1:5, 
  y = 1, 
  z = x ^ 2 + y
)

#> # A tibble: 5 x 3
#>       x     y     z
#>   <int> <dbl> <dbl>
#> 1     1    1.    2.
#> 2     2    1.    5.
#> 3     3    1.   10.
#> # ... with 2 more rows
…
data.frame(`1`= 1:3)

#>   X1
#> 1  1
#> 2  2
#> 3  3

tibble(
  `;)` = 1:5, 
  `42` = "1", 
  `€` = `;)` ^ 2 + as.numeric(`42`)
)

#> # A tibble: 5 x 3
#>    `;)` `42`    `€`
#>   <int> <chr> <dbl>
#> 1     1 1        2.
#> 2     2 1        5.
#> 3     3 1       10.
#> # ... with 2 more rows
…
Afficher un tibble

Les méthodes show() et print() :

as_tibble(mtcars)

#> # A tibble: 32 x 11
#>     mpg   cyl  disp    hp  drat    wt  qsec    vs    am  gear  carb
#> * <dbl> <dbl> <dbl> <dbl> <dbl> <dbl> <dbl> <dbl> <dbl> <dbl> <dbl>
#> 1  21.0    6.  160.  110.  3.90  2.62  16.5    0.    1.    4.    4.
#> 2  21.0    6.  160.  110.  3.90  2.88  17.0    0.    1.    4.    4.
#> 3  22.8    4.  108.   93.  3.85  2.32  18.6    1.    1.    4.    1.
#> # ... with 29 more rows

print(as_tibble(mtcars))

#> # A tibble: 32 x 11
#>     mpg   cyl  disp    hp  drat    wt  qsec    vs    am  gear  carb
#> * <dbl> <dbl> <dbl> <dbl> <dbl> <dbl> <dbl> <dbl> <dbl> <dbl> <dbl>
#> 1  21.0    6.  160.  110.  3.90  2.62  16.5    0.    1.    4.    4.
#> 2  21.0    6.  160.  110.  3.90  2.88  17.0    0.    1.    4.    4.
#> 3  22.8    4.  108.   93.  3.85  2.32  18.6    1.    1.    4.    1.
#> # ... with 29 more rows
…
as_tibble(mtcars)$mpg

#>  [1] 21.0 21.0 22.8 21.4 18.7 18.1 14.3 24.4 22.8 19.2 17.8 16.4 17.3 15.2 10.4
#> [16] 10.4 14.7 32.4 30.4 33.9 21.5 15.5 15.2 13.3 19.2 27.3 26.0 30.4 15.8 19.7
#> [31] 15.0 21.4

as_tibble(mtcars)[["mpg"]]

#>  [1] 21.0 21.0 22.8 21.4 18.7 18.1 14.3 24.4 22.8 19.2 17.8 16.4 17.3 15.2 10.4
#> [16] 10.4 14.7 32.4 30.4 33.9 21.5 15.5 15.2 13.3 19.2 27.3 26.0 30.4 15.8 19.7
#> [31] 15.0 21.4

as_tibble(mtcars)[, "mpg"]

#> # A tibble: 32 x 1
#>     mpg
#>   <dbl>
#> 1  21.0
#> 2  21.0
#> 3  22.8
#> # ... with 29 more rows
…
